todo junto/simulation/qsim/Ubicacion.msim.vcd
$comment
	File created using the following command:
		vcd file Ubicacion.msim.vcd -direction
$end
$date
	Thu Nov 28 18:20:39 2024
$end
$version
	ModelSim Version 10.5b
$end
$timescale
	1ps
$end

$scope module ubicacion4_vhd_vec_tst $end
$var wire 1 ! clk $end
$var wire 1 " E $end
$var wire 1 # E_delay_out $end
$var wire 1 $ orientacion_out [1] $end
$var wire 1 % orientacion_out [0] $end
$var wire 1 & posicion_out [3] $end
$var wire 1 ' posicion_out [2] $end
$var wire 1 ( posicion_out [1] $end
$var wire 1 ) posicion_out [0] $end
$var wire 1 * reset $end
$var wire 1 + SD $end
$var wire 1 , SF $end
$var wire 1 - SI $end
$var wire 1 . SL $end
$var wire 1 / x [1] $end
$var wire 1 0 x [0] $end

$scope module i1 $end
$var wire 1 1 gnd $end
$var wire 1 2 vcc $end
$var wire 1 3 unknown $end
$var wire 1 4 devoe $end
$var wire 1 5 devclrn $end
$var wire 1 6 devpor $end
$var wire 1 7 ww_devoe $end
$var wire 1 8 ww_devclrn $end
$var wire 1 9 ww_devpor $end
$var wire 1 : ww_SD $end
$var wire 1 ; ww_SI $end
$var wire 1 < ww_SF $end
$var wire 1 = ww_SL $end
$var wire 1 > ww_clk $end
$var wire 1 ? ww_E $end
$var wire 1 @ ww_x [1] $end
$var wire 1 A ww_x [0] $end
$var wire 1 B ww_reset $end
$var wire 1 C ww_posicion_out [3] $end
$var wire 1 D ww_posicion_out [2] $end
$var wire 1 E ww_posicion_out [1] $end
$var wire 1 F ww_posicion_out [0] $end
$var wire 1 G ww_orientacion_out [1] $end
$var wire 1 H ww_orientacion_out [0] $end
$var wire 1 I ww_E_delay_out $end
$var wire 1 J \SL~inputclkctrl_INCLK_bus\ [3] $end
$var wire 1 K \SL~inputclkctrl_INCLK_bus\ [2] $end
$var wire 1 L \SL~inputclkctrl_INCLK_bus\ [1] $end
$var wire 1 M \SL~inputclkctrl_INCLK_bus\ [0] $end
$var wire 1 N \reset~inputclkctrl_INCLK_bus\ [3] $end
$var wire 1 O \reset~inputclkctrl_INCLK_bus\ [2] $end
$var wire 1 P \reset~inputclkctrl_INCLK_bus\ [1] $end
$var wire 1 Q \reset~inputclkctrl_INCLK_bus\ [0] $end
$var wire 1 R \clk~inputclkctrl_INCLK_bus\ [3] $end
$var wire 1 S \clk~inputclkctrl_INCLK_bus\ [2] $end
$var wire 1 T \clk~inputclkctrl_INCLK_bus\ [1] $end
$var wire 1 U \clk~inputclkctrl_INCLK_bus\ [0] $end
$var wire 1 V \SD~input_o\ $end
$var wire 1 W \SI~input_o\ $end
$var wire 1 X \SF~input_o\ $end
$var wire 1 Y \posicion_out[0]~output_o\ $end
$var wire 1 Z \posicion_out[1]~output_o\ $end
$var wire 1 [ \posicion_out[2]~output_o\ $end
$var wire 1 \ \posicion_out[3]~output_o\ $end
$var wire 1 ] \orientacion_out[0]~output_o\ $end
$var wire 1 ^ \orientacion_out[1]~output_o\ $end
$var wire 1 _ \E_delay_out~output_o\ $end
$var wire 1 ` \SL~input_o\ $end
$var wire 1 a \SL~inputclkctrl_outclk\ $end
$var wire 1 b \clk~input_o\ $end
$var wire 1 c \clk~inputclkctrl_outclk\ $end
$var wire 1 d \x[1]~input_o\ $end
$var wire 1 e \x[0]~input_o\ $end
$var wire 1 f \Mux3~0_combout\ $end
$var wire 1 g \reset~input_o\ $end
$var wire 1 h \E~input_o\ $end
$var wire 1 i \E_anterior~feeder_combout\ $end
$var wire 1 j \reset~inputclkctrl_outclk\ $end
$var wire 1 k \E_anterior~q\ $end
$var wire 1 l \E_flanco~0_combout\ $end
$var wire 1 m \E_flanco~q\ $end
$var wire 1 n \orientacion[0]~0_combout\ $end
$var wire 1 o \Mux2~0_combout\ $end
$var wire 1 p \Mux5~1_combout\ $end
$var wire 1 q \Mux5~2_combout\ $end
$var wire 1 r \Mux15~7_combout\ $end
$var wire 1 s \posicion[3]~1_combout\ $end
$var wire 1 t \Mux12~0_combout\ $end
$var wire 1 u \Mux12~1_combout\ $end
$var wire 1 v \Mux15~5_combout\ $end
$var wire 1 w \Mux15~4_combout\ $end
$var wire 1 x \posicion[2]~0_combout\ $end
$var wire 1 y \Mux15~6_combout\ $end
$var wire 1 z \Mux15~0_combout\ $end
$var wire 1 { \Mux15~2_combout\ $end
$var wire 1 | \Mux14~0_combout\ $end
$var wire 1 } \Mux14~1_combout\ $end
$var wire 1 ~ \Mux5~0_combout\ $end
$var wire 1 !! \Mux15~1_combout\ $end
$var wire 1 "! \Mux15~3_combout\ $end
$var wire 1 #! \Add0~0_combout\ $end
$var wire 1 $! \Add0~1\ $end
$var wire 1 %! \Add0~2_combout\ $end
$var wire 1 &! \Add0~3\ $end
$var wire 1 '! \Add0~4_combout\ $end
$var wire 1 (! \count~0_combout\ $end
$var wire 1 )! \Add0~5\ $end
$var wire 1 *! \Add0~6_combout\ $end
$var wire 1 +! \Add0~7\ $end
$var wire 1 ,! \Add0~8_combout\ $end
$var wire 1 -! \Add0~9\ $end
$var wire 1 .! \Add0~10_combout\ $end
$var wire 1 /! \Add0~11\ $end
$var wire 1 0! \Add0~12_combout\ $end
$var wire 1 1! \Add0~13\ $end
$var wire 1 2! \Add0~14_combout\ $end
$var wire 1 3! \Equal0~8_combout\ $end
$var wire 1 4! \Equal0~9_combout\ $end
$var wire 1 5! \Add0~15\ $end
$var wire 1 6! \Add0~16_combout\ $end
$var wire 1 7! \Add0~17\ $end
$var wire 1 8! \Add0~18_combout\ $end
$var wire 1 9! \Add0~19\ $end
$var wire 1 :! \Add0~20_combout\ $end
$var wire 1 ;! \Add0~21\ $end
$var wire 1 <! \Add0~22_combout\ $end
$var wire 1 =! \Add0~23\ $end
$var wire 1 >! \Add0~24_combout\ $end
$var wire 1 ?! \Add0~25\ $end
$var wire 1 @! \Add0~26_combout\ $end
$var wire 1 A! \Equal0~6_combout\ $end
$var wire 1 B! \Add0~27\ $end
$var wire 1 C! \Add0~28_combout\ $end
$var wire 1 D! \Add0~29\ $end
$var wire 1 E! \Add0~30_combout\ $end
$var wire 1 F! \Equal0~5_combout\ $end
$var wire 1 G! \Equal0~7_combout\ $end
$var wire 1 H! \Add0~31\ $end
$var wire 1 I! \Add0~32_combout\ $end
$var wire 1 J! \Add0~33\ $end
$var wire 1 K! \Add0~34_combout\ $end
$var wire 1 L! \Add0~35\ $end
$var wire 1 M! \Add0~36_combout\ $end
$var wire 1 N! \Add0~37\ $end
$var wire 1 O! \Add0~38_combout\ $end
$var wire 1 P! \Add0~39\ $end
$var wire 1 Q! \Add0~40_combout\ $end
$var wire 1 R! \Add0~41\ $end
$var wire 1 S! \Add0~42_combout\ $end
$var wire 1 T! \Add0~43\ $end
$var wire 1 U! \Add0~44_combout\ $end
$var wire 1 V! \Add0~45\ $end
$var wire 1 W! \Add0~46_combout\ $end
$var wire 1 X! \Add0~47\ $end
$var wire 1 Y! \Add0~48_combout\ $end
$var wire 1 Z! \Add0~49\ $end
$var wire 1 [! \Add0~50_combout\ $end
$var wire 1 \! \Add0~51\ $end
$var wire 1 ]! \Add0~52_combout\ $end
$var wire 1 ^! \Add0~53\ $end
$var wire 1 _! \Add0~54_combout\ $end
$var wire 1 `! \Equal0~1_combout\ $end
$var wire 1 a! \Equal0~2_combout\ $end
$var wire 1 b! \Add0~55\ $end
$var wire 1 c! \Add0~56_combout\ $end
$var wire 1 d! \Add0~57\ $end
$var wire 1 e! \Add0~58_combout\ $end
$var wire 1 f! \Add0~59\ $end
$var wire 1 g! \Add0~60_combout\ $end
$var wire 1 h! \Add0~61\ $end
$var wire 1 i! \Add0~62_combout\ $end
$var wire 1 j! \Equal0~0_combout\ $end
$var wire 1 k! \Equal0~3_combout\ $end
$var wire 1 l! \Equal0~4_combout\ $end
$var wire 1 m! \Equal0~10_combout\ $end
$var wire 1 n! \timer_status~0_combout\ $end
$var wire 1 o! \timer_status~q\ $end
$var wire 1 p! \E_delay~0_combout\ $end
$var wire 1 q! \E_delay~q\ $end
$var wire 1 r! posicion [3] $end
$var wire 1 s! posicion [2] $end
$var wire 1 t! posicion [1] $end
$var wire 1 u! posicion [0] $end
$var wire 1 v! orientacion [1] $end
$var wire 1 w! orientacion [0] $end
$var wire 1 x! count [31] $end
$var wire 1 y! count [30] $end
$var wire 1 z! count [29] $end
$var wire 1 {! count [28] $end
$var wire 1 |! count [27] $end
$var wire 1 }! count [26] $end
$var wire 1 ~! count [25] $end
$var wire 1 !" count [24] $end
$var wire 1 "" count [23] $end
$var wire 1 #" count [22] $end
$var wire 1 $" count [21] $end
$var wire 1 %" count [20] $end
$var wire 1 &" count [19] $end
$var wire 1 '" count [18] $end
$var wire 1 (" count [17] $end
$var wire 1 )" count [16] $end
$var wire 1 *" count [15] $end
$var wire 1 +" count [14] $end
$var wire 1 ," count [13] $end
$var wire 1 -" count [12] $end
$var wire 1 ." count [11] $end
$var wire 1 /" count [10] $end
$var wire 1 0" count [9] $end
$var wire 1 1" count [8] $end
$var wire 1 2" count [7] $end
$var wire 1 3" count [6] $end
$var wire 1 4" count [5] $end
$var wire 1 5" count [4] $end
$var wire 1 6" count [3] $end
$var wire 1 7" count [2] $end
$var wire 1 8" count [1] $end
$var wire 1 9" count [0] $end
$var wire 1 :" \ALT_INV_reset~inputclkctrl_outclk\ $end
$var wire 1 ;" \ALT_INV_E_delay~q\ $end
$var wire 1 <" ALT_INV_posicion [2] $end
$upscope $end
$upscope $end
$enddefinitions $end
#0
$dumpvars
0!
0"
1#
0*
x+
x,
x-
1.
01
12
x3
14
15
16
17
18
19
x:
x;
x<
1=
0>
0?
0B
1I
xV
xW
xX
0Y
0Z
0[
0\
0]
0^
1_
1`
1a
0b
0c
0d
0e
0f
0g
0h
0i
0j
0k
0l
0m
0n
0o
0p
0q
1r
0s
1t
0u
1v
1w
1x
0y
1z
0{
0|
0}
0~
1!!
1"!
1#!
0$!
0%!
1&!
0'!
0(!
0)!
0*!
1+!
0,!
0-!
0.!
1/!
00!
01!
02!
03!
14!
15!
06!
07!
08!
19!
0:!
0;!
0<!
1=!
0>!
0?!
0@!
0A!
1B!
0C!
0D!
0E!
0F!
0G!
1H!
0I!
0J!
0K!
1L!
0M!
0N!
0O!
1P!
0Q!
0R!
0S!
1T!
0U!
0V!
0W!
1X!
0Y!
0Z!
0[!
1\!
0]!
0^!
0_!
0`!
0a!
1b!
0c!
0d!
0e!
1f!
0g!
0h!
0i!
0j!
0k!
0l!
1m!
0n!
0o!
0p!
0q!
1:"
1;"
0/
00
0@
0A
0C
0D
0E
0F
0G
0H
0r!
0s!
0t!
0u!
0v!
0w!
0x!
0y!
0z!
0{!
0|!
0}!
0~!
0!"
0""
0#"
0$"
0%"
0&"
0'"
0("
0)"
0*"
0+"
0,"
0-"
0."
0/"
00"
01"
02"
03"
04"
05"
06"
07"
08"
09"
1<"
1J
1K
1L
1M
1R
1S
1T
0U
1N
1O
1P
0Q
0$
0%
0&
0'
0(
0)
$end
#5000
1!
1>
1b
1U
1c
#10000
0!
0>
0b
0U
0c
#15000
1!
1>
1b
1U
1c
#20000
0!
0>
0b
0U
0c
#25000
1!
1>
1b
1U
1c
#30000
0!
0>
0b
0U
0c
#35000
1!
1>
1b
1U
1c
#40000
0!
0>
0b
0U
0c
#45000
1!
1>
1b
1U
1c
#50000
0!
0>
0b
0U
0c
#55000
1!
1>
1b
1U
1c
#60000
0!
0>
0b
0U
0c
#65000
1!
1>
1b
1U
1c
#70000
0!
0>
0b
0U
0c
#75000
1!
1>
1b
1U
1c
#80000
0!
0>
0b
0U
0c
#85000
1!
1>
1b
1U
1c
#90000
0!
0>
0b
0U
0c
#95000
1!
1>
1b
1U
1c
#100000
0!
0>
0b
0U
0c
#105000
1!
1>
1b
1U
1c
#110000
0!
0>
0b
0U
0c
#115000
1!
1>
1b
1U
1c
#120000
0!
0>
0b
0U
0c
#125000
1!
1>
1b
1U
1c
#130000
0!
0>
0b
0U
0c
#135000
1!
1>
1b
1U
1c
#140000
0!
0>
0b
0U
0c
#145000
1!
1>
1b
1U
1c
#150000
0!
0>
0b
0U
0c
#155000
1!
1>
1b
1U
1c
#160000
0!
0>
0b
0U
0c
#165000
1!
1>
1b
1U
1c
#170000
0!
0>
0b
0U
0c
#175000
1!
1>
1b
1U
1c
#180000
0!
0>
0b
0U
0c
#185000
1!
1>
1b
1U
1c
#190000
0!
0>
0b
0U
0c
#195000
1!
1>
1b
1U
1c
#200000
0!
0>
0b
0U
0c
#205000
1!
1>
1b
1U
1c
#210000
0!
0>
0b
0U
0c
#215000
1!
1>
1b
1U
1c
#220000
0!
0>
0b
0U
0c
#225000
1!
1>
1b
1U
1c
#230000
0!
0>
0b
0U
0c
#235000
1!
1>
1b
1U
1c
#240000
0!
0>
0b
0U
0c
#245000
1!
1>
1b
1U
1c
#250000
0!
0>
0b
0U
0c
#255000
1!
1>
1b
1U
1c
#260000
0!
0>
0b
0U
0c
#265000
1!
1>
1b
1U
1c
#270000
0!
0>
0b
0U
0c
#275000
1!
1>
1b
1U
1c
#280000
0!
0>
0b
0U
0c
#285000
1!
1>
1b
1U
1c
#290000
0!
0>
0b
0U
0c
#295000
1!
1>
1b
1U
1c
#300000
0!
0>
0b
0U
0c
#305000
1!
1>
1b
1U
1c
#310000
0!
0>
0b
0U
0c
#315000
1!
1>
1b
1U
1c
#320000
0!
0>
0b
0U
0c
#325000
1!
1>
1b
1U
1c
#330000
0!
0>
0b
0U
0c
#335000
1!
1>
1b
1U
1c
#340000
0!
0>
0b
0U
0c
#345000
1!
1>
1b
1U
1c
#350000
0!
0>
0b
0U
0c
#355000
1!
1>
1b
1U
1c
#360000
0!
0>
0b
0U
0c
#365000
1!
1>
1b
1U
1c
#370000
0!
0>
0b
0U
0c
#375000
1!
1>
1b
1U
1c
#380000
0!
0>
0b
0U
0c
#385000
1!
1>
1b
1U
1c
#390000
0!
0>
0b
0U
0c
#395000
1!
1>
1b
1U
1c
#400000
0!
0>
0b
0U
0c
#405000
1!
1>
1b
1U
1c
#410000
0!
0>
0b
0U
0c
#415000
1!
1>
1b
1U
1c
#420000
0!
0>
0b
0U
0c
#425000
1!
1>
1b
1U
1c
#430000
0!
0>
0b
0U
0c
#435000
1!
1>
1b
1U
1c
#440000
0!
0>
0b
0U
0c
#445000
1!
1>
1b
1U
1c
#450000
0!
0>
0b
0U
0c
#455000
1!
1>
1b
1U
1c
#460000
0!
0>
0b
0U
0c
#465000
1!
1>
1b
1U
1c
#470000
0!
0>
0b
0U
0c
#475000
1!
1>
1b
1U
1c
#480000
0!
0>
0b
0U
0c
#485000
1!
1>
1b
1U
1c
#490000
0!
0>
0b
0U
0c
#495000
1!
1>
1b
1U
1c
#500000
0!
0>
0b
0U
0c
#505000
1!
1>
1b
1U
1c
#510000
0!
0>
0b
0U
0c
#515000
1!
1>
1b
1U
1c
#520000
0!
0>
0b
0U
0c
#525000
1!
1>
1b
1U
1c
#530000
0!
0>
0b
0U
0c
#535000
1!
1>
1b
1U
1c
#540000
0!
0>
0b
0U
0c
#545000
1!
1>
1b
1U
1c
#550000
0!
0>
0b
0U
0c
#555000
1!
1>
1b
1U
1c
#560000
0!
0>
0b
0U
0c
#565000
1!
1>
1b
1U
1c
#570000
0!
0>
0b
0U
0c
#575000
1!
1>
1b
1U
1c
#580000
0!
0>
0b
0U
0c
#585000
1!
1>
1b
1U
1c
#590000
0!
0>
0b
0U
0c
#595000
1!
1>
1b
1U
1c
#600000
0!
0>
0b
0U
0c
#605000
1!
1>
1b
1U
1c
#610000
0!
0>
0b
0U
0c
#615000
1!
1>
1b
1U
1c
#620000
0!
0>
0b
0U
0c
#625000
1!
1>
1b
1U
1c
#630000
0!
0>
0b
0U
0c
#635000
1!
1>
1b
1U
1c
#640000
0!
0>
0b
0U
0c
#645000
1!
1>
1b
1U
1c
#650000
0!
0>
0b
0U
0c
#655000
1!
1>
1b
1U
1c
#660000
0!
0>
0b
0U
0c
#665000
1!
1>
1b
1U
1c
#670000
0!
0>
0b
0U
0c
#675000
1!
1>
1b
1U
1c
#680000
0!
0>
0b
0U
0c
#685000
1!
1>
1b
1U
1c
#690000
0!
0>
0b
0U
0c
#695000
1!
1>
1b
1U
1c
#700000
0!
0>
0b
0U
0c
#705000
1!
1>
1b
1U
1c
#710000
0!
0>
0b
0U
0c
#715000
1!
1>
1b
1U
1c
#720000
0!
0>
0b
0U
0c
#725000
1!
1>
1b
1U
1c
#730000
0!
0>
0b
0U
0c
#735000
1!
1>
1b
1U
1c
#740000
0!
0>
0b
0U
0c
#745000
1!
1>
1b
1U
1c
#750000
0!
0>
0b
0U
0c
#755000
1!
1>
1b
1U
1c
#760000
0!
0>
0b
0U
0c
#765000
1!
1>
1b
1U
1c
#770000
0!
0>
0b
0U
0c
#775000
1!
1>
1b
1U
1c
#780000
0!
0>
0b
0U
0c
#785000
1!
1>
1b
1U
1c
#790000
0!
0>
0b
0U
0c
#795000
1!
1>
1b
1U
1c
#800000
0!
0>
0b
0U
0c
#805000
1!
1>
1b
1U
1c
#810000
0!
0>
0b
0U
0c
#815000
1!
1>
1b
1U
1c
#820000
0!
0>
0b
0U
0c
#825000
1!
1>
1b
1U
1c
#830000
0!
0>
0b
0U
0c
#835000
1!
1>
1b
1U
1c
#840000
0!
0>
0b
0U
0c
#845000
1!
1>
1b
1U
1c
#850000
0!
0>
0b
0U
0c
#855000
1!
1>
1b
1U
1c
#860000
0!
0>
0b
0U
0c
#865000
1!
1>
1b
1U
1c
#870000
0!
0>
0b
0U
0c
#875000
1!
1>
1b
1U
1c
#880000
0!
0>
0b
0U
0c
#885000
1!
1>
1b
1U
1c
#890000
0!
0>
0b
0U
0c
#895000
1!
1>
1b
1U
1c
#900000
0!
0>
0b
0U
0c
#905000
1!
1>
1b
1U
1c
#910000
0!
0>
0b
0U
0c
#915000
1!
1>
1b
1U
1c
#920000
0!
0>
0b
0U
0c
#925000
1!
1>
1b
1U
1c
#930000
0!
0>
0b
0U
0c
#935000
1!
1>
1b
1U
1c
#940000
0!
0>
0b
0U
0c
#945000
1!
1>
1b
1U
1c
#950000
0!
0>
0b
0U
0c
#955000
1!
1>
1b
1U
1c
#960000
0!
0>
0b
0U
0c
#965000
1!
1>
1b
1U
1c
#970000
0!
0>
0b
0U
0c
#975000
1!
1>
1b
1U
1c
#980000
0!
0>
0b
0U
0c
#985000
1!
1>
1b
1U
1c
#990000
0!
0>
0b
0U
0c
#995000
1!
1>
1b
1U
1c
#1000000
0!
0.
0>
0=
0`
0b
0M
0U
0c
0a
#1005000
1!
1>
1b
1U
1c
#1010000
0!
0>
0b
0U
0c
#1015000
1!
1>
1b
1U
1c
#1020000
0!
0>
0b
0U
0c
#1025000
1!
1>
1b
1U
1c
#1030000
0!
0>
0b
0U
0c
#1035000
1!
1>
1b
1U
1c
#1040000
0!
0>
0b
0U
0c
#1045000
1!
1>
1b
1U
1c
#1050000
0!
0>
0b
0U
0c
#1055000
1!
1>
1b
1U
1c
#1060000
0!
0>
0b
0U
0c
#1065000
1!
1>
1b
1U
1c
#1070000
0!
0>
0b
0U
0c
#1075000
1!
1>
1b
1U
1c
#1080000
0!
0>
0b
0U
0c
#1085000
1!
1>
1b
1U
1c
#1090000
0!
0>
0b
0U
0c
#1095000
1!
1>
1b
1U
1c
#1100000
0!
0>
0b
0U
0c
#1105000
1!
1>
1b
1U
1c
#1110000
0!
0>
0b
0U
0c
#1115000
1!
1>
1b
1U
1c
#1120000
0!
0>
0b
0U
0c
#1125000
1!
1>
1b
1U
1c
#1130000
0!
0>
0b
0U
0c
#1135000
1!
1>
1b
1U
1c
#1140000
0!
0>
0b
0U
0c
#1145000
1!
1>
1b
1U
1c
#1150000
0!
0>
0b
0U
0c
#1155000
1!
1>
1b
1U
1c
#1160000
0!
0>
0b
0U
0c
#1165000
1!
1>
1b
1U
1c
#1170000
0!
0>
0b
0U
0c
#1175000
1!
1>
1b
1U
1c
#1180000
0!
0>
0b
0U
0c
#1185000
1!
1>
1b
1U
1c
#1190000
0!
0>
0b
0U
0c
#1195000
1!
1>
1b
1U
1c
#1200000
0!
0>
0b
0U
0c
#1205000
1!
1>
1b
1U
1c
#1210000
0!
0>
0b
0U
0c
#1215000
1!
1>
1b
1U
1c
#1220000
0!
0>
0b
0U
0c
#1225000
1!
1>
1b
1U
1c
#1230000
0!
0>
0b
0U
0c
#1235000
1!
1>
1b
1U
1c
#1240000
0!
0>
0b
0U
0c
#1245000
1!
1>
1b
1U
1c
#1250000
0!
0>
0b
0U
0c
#1255000
1!
1>
1b
1U
1c
#1260000
0!
0>
0b
0U
0c
#1265000
1!
1>
1b
1U
1c
#1270000
0!
0>
0b
0U
0c
#1275000
1!
1>
1b
1U
1c
#1280000
0!
0>
0b
0U
0c
#1285000
1!
1>
1b
1U
1c
#1290000
0!
0>
0b
0U
0c
#1295000
1!
1>
1b
1U
1c
#1300000
0!
0>
0b
0U
0c
#1305000
1!
1>
1b
1U
1c
#1310000
0!
0>
0b
0U
0c
#1315000
1!
1>
1b
1U
1c
#1320000
0!
0>
0b
0U
0c
#1325000
1!
1>
1b
1U
1c
#1330000
0!
0>
0b
0U
0c
#1335000
1!
1>
1b
1U
1c
#1340000
0!
0>
0b
0U
0c
#1345000
1!
1>
1b
1U
1c
#1350000
0!
0>
0b
0U
0c
#1355000
1!
1>
1b
1U
1c
#1360000
0!
0>
0b
0U
0c
#1365000
1!
1>
1b
1U
1c
#1370000
0!
0>
0b
0U
0c
#1375000
1!
1>
1b
1U
1c
#1380000
0!
0>
0b
0U
0c
#1385000
1!
1>
1b
1U
1c
#1390000
0!
0>
0b
0U
0c
#1395000
1!
1>
1b
1U
1c
#1400000
0!
0>
0b
0U
0c
#1405000
1!
1>
1b
1U
1c
#1410000
0!
0>
0b
0U
0c
#1415000
1!
1>
1b
1U
1c
#1420000
0!
0>
0b
0U
0c
#1425000
1!
1>
1b
1U
1c
#1430000
0!
0>
0b
0U
0c
#1435000
1!
1>
1b
1U
1c
#1440000
0!
0>
0b
0U
0c
#1445000
1!
1>
1b
1U
1c
#1450000
0!
0>
0b
0U
0c
#1455000
1!
1>
1b
1U
1c
#1460000
0!
0>
0b
0U
0c
#1465000
1!
1>
1b
1U
1c
#1470000
0!
0>
0b
0U
0c
#1475000
1!
1>
1b
1U
1c
#1480000
0!
0>
0b
0U
0c
#1485000
1!
1>
1b
1U
1c
#1490000
0!
0>
0b
0U
0c
#1495000
1!
1>
1b
1U
1c
#1500000
0!
0>
0b
0U
0c
#1505000
1!
1>
1b
1U
1c
#1510000
0!
0>
0b
0U
0c
#1515000
1!
1>
1b
1U
1c
#1520000
0!
0>
0b
0U
0c
#1525000
1!
1>
1b
1U
1c
#1530000
0!
0>
0b
0U
0c
#1535000
1!
1>
1b
1U
1c
#1540000
0!
0>
0b
0U
0c
#1545000
1!
1>
1b
1U
1c
#1550000
0!
0>
0b
0U
0c
#1555000
1!
1>
1b
1U
1c
#1560000
0!
0>
0b
0U
0c
#1565000
1!
1>
1b
1U
1c
#1570000
0!
0>
0b
0U
0c
#1575000
1!
1>
1b
1U
1c
#1580000
0!
0>
0b
0U
0c
#1585000
1!
1>
1b
1U
1c
#1590000
0!
0>
0b
0U
0c
#1595000
1!
1>
1b
1U
1c
#1600000
0!
0>
0b
0U
0c
#1605000
1!
1>
1b
1U
1c
#1610000
0!
0>
0b
0U
0c
#1615000
1!
1>
1b
1U
1c
#1620000
0!
0>
0b
0U
0c
#1625000
1!
1>
1b
1U
1c
#1630000
0!
0>
0b
0U
0c
#1635000
1!
1>
1b
1U
1c
#1640000
0!
0>
0b
0U
0c
#1645000
1!
1>
1b
1U
1c
#1650000
0!
0>
0b
0U
0c
#1655000
1!
1>
1b
1U
1c
#1660000
0!
0>
0b
0U
0c
#1665000
1!
1>
1b
1U
1c
#1670000
0!
0>
0b
0U
0c
#1675000
1!
1>
1b
1U
1c
#1680000
0!
0>
0b
0U
0c
#1685000
1!
1>
1b
1U
1c
#1690000
0!
0>
0b
0U
0c
#1695000
1!
1>
1b
1U
1c
#1700000
0!
0>
0b
0U
0c
#1705000
1!
1>
1b
1U
1c
#1710000
0!
0>
0b
0U
0c
#1715000
1!
1>
1b
1U
1c
#1720000
0!
0>
0b
0U
0c
#1725000
1!
1>
1b
1U
1c
#1730000
0!
0>
0b
0U
0c
#1735000
1!
1>
1b
1U
1c
#1740000
0!
0>
0b
0U
0c
#1745000
1!
1>
1b
1U
1c
#1750000
0!
0>
0b
0U
0c
#1755000
1!
1>
1b
1U
1c
#1760000
0!
0>
0b
0U
0c
#1765000
1!
1>
1b
1U
1c
#1770000
0!
0>
0b
0U
0c
#1775000
1!
1>
1b
1U
1c
#1780000
0!
0>
0b
0U
0c
#1785000
1!
1>
1b
1U
1c
#1790000
0!
0>
0b
0U
0c
#1795000
1!
1>
1b
1U
1c
#1800000
0!
0>
0b
0U
0c
#1805000
1!
1>
1b
1U
1c
#1810000
0!
0>
0b
0U
0c
#1815000
1!
1>
1b
1U
1c
#1820000
0!
0>
0b
0U
0c
#1825000
1!
1>
1b
1U
1c
#1830000
0!
0>
0b
0U
0c
#1835000
1!
1>
1b
1U
1c
#1840000
0!
0>
0b
0U
0c
#1845000
1!
1>
1b
1U
1c
#1850000
0!
0>
0b
0U
0c
#1855000
1!
1>
1b
1U
1c
#1860000
0!
0>
0b
0U
0c
#1865000
1!
1>
1b
1U
1c
#1870000
0!
0>
0b
0U
0c
#1875000
1!
1>
1b
1U
1c
#1880000
0!
0>
0b
0U
0c
#1885000
1!
1>
1b
1U
1c
#1890000
0!
0>
0b
0U
0c
#1895000
1!
1>
1b
1U
1c
#1900000
0!
0>
0b
0U
0c
#1905000
1!
1>
1b
1U
1c
#1910000
0!
0>
0b
0U
0c
#1915000
1!
1>
1b
1U
1c
#1920000
0!
0>
0b
0U
0c
#1925000
1!
1>
1b
1U
1c
#1930000
0!
0>
0b
0U
0c
#1935000
1!
1>
1b
1U
1c
#1940000
0!
0>
0b
0U
0c
#1945000
1!
1>
1b
1U
1c
#1950000
0!
0>
0b
0U
0c
#1955000
1!
1>
1b
1U
1c
#1960000
0!
0>
0b
0U
0c
#1965000
1!
1>
1b
1U
1c
#1970000
0!
0>
0b
0U
0c
#1975000
1!
1>
1b
1U
1c
#1980000
0!
0>
0b
0U
0c
#1985000
1!
1>
1b
1U
1c
#1990000
0!
0>
0b
0U
0c
#1995000
1!
1>
1b
1U
1c
#2000000
0!
0>
0b
0U
0c
#2005000
1!
1>
1b
1U
1c
#2010000
0!
0>
0b
0U
0c
#2015000
1!
1>
1b
1U
1c
#2020000
0!
0>
0b
0U
0c
#2025000
1!
1>
1b
1U
1c
#2030000
0!
0>
0b
0U
0c
#2035000
1!
1>
1b
1U
1c
#2040000
0!
0>
0b
0U
0c
#2045000
1!
1>
1b
1U
1c
#2050000
0!
0>
0b
0U
0c
#2055000
1!
1>
1b
1U
1c
#2060000
0!
0>
0b
0U
0c
#2065000
1!
1>
1b
1U
1c
#2070000
0!
0>
0b
0U
0c
#2075000
1!
1>
1b
1U
1c
#2080000
0!
0>
0b
0U
0c
#2085000
1!
1>
1b
1U
1c
#2090000
0!
0>
0b
0U
0c
#2095000
1!
1>
1b
1U
1c
#2100000
0!
0>
0b
0U
0c
#2105000
1!
1>
1b
1U
1c
#2110000
0!
0>
0b
0U
0c
#2115000
1!
1>
1b
1U
1c
#2120000
0!
0>
0b
0U
0c
#2125000
1!
1>
1b
1U
1c
#2130000
0!
0>
0b
0U
0c
#2135000
1!
1>
1b
1U
1c
#2140000
0!
0>
0b
0U
0c
#2145000
1!
1>
1b
1U
1c
#2150000
0!
0>
0b
0U
0c
#2155000
1!
1>
1b
1U
1c
#2160000
0!
0>
0b
0U
0c
#2165000
1!
1>
1b
1U
1c
#2170000
0!
0>
0b
0U
0c
#2175000
1!
1>
1b
1U
1c
#2180000
0!
0>
0b
0U
0c
#2185000
1!
1>
1b
1U
1c
#2190000
0!
0>
0b
0U
0c
#2195000
1!
1>
1b
1U
1c
#2200000
0!
0>
0b
0U
0c
#2205000
1!
1>
1b
1U
1c
#2210000
0!
0>
0b
0U
0c
#2215000
1!
1>
1b
1U
1c
#2220000
0!
0>
0b
0U
0c
#2225000
1!
1>
1b
1U
1c
#2230000
0!
0>
0b
0U
0c
#2235000
1!
1>
1b
1U
1c
#2240000
0!
0>
0b
0U
0c
#2245000
1!
1>
1b
1U
1c
#2250000
0!
0>
0b
0U
0c
#2255000
1!
1>
1b
1U
1c
#2260000
0!
0>
0b
0U
0c
#2265000
1!
1>
1b
1U
1c
#2270000
0!
0>
0b
0U
0c
#2275000
1!
1>
1b
1U
1c
#2280000
0!
0>
0b
0U
0c
#2285000
1!
1>
1b
1U
1c
#2290000
0!
0>
0b
0U
0c
#2295000
1!
1>
1b
1U
1c
#2300000
0!
0>
0b
0U
0c
#2305000
1!
1>
1b
1U
1c
#2310000
0!
0>
0b
0U
0c
#2315000
1!
1>
1b
1U
1c
#2320000
0!
0>
0b
0U
0c
#2325000
1!
1>
1b
1U
1c
#2330000
0!
0>
0b
0U
0c
#2335000
1!
1>
1b
1U
1c
#2340000
0!
0>
0b
0U
0c
#2345000
1!
1>
1b
1U
1c
#2350000
0!
0>
0b
0U
0c
#2355000
1!
1>
1b
1U
1c
#2360000
0!
0>
0b
0U
0c
#2365000
1!
1>
1b
1U
1c
#2370000
0!
0>
0b
0U
0c
#2375000
1!
1>
1b
1U
1c
#2380000
0!
0>
0b
0U
0c
#2385000
1!
1>
1b
1U
1c
#2390000
0!
0>
0b
0U
0c
#2395000
1!
1>
1b
1U
1c
#2400000
0!
0>
0b
0U
0c
#2405000
1!
1>
1b
1U
1c
#2410000
0!
0>
0b
0U
0c
